{
  "description": "sample Github_trivial/o10089.json",
  "meta": {
    "full_size": 142,
    "stripped_size": 120,
    "features": [
      "additionalProperties"
    ],
    "raw_features": [
      "_boolSchema",
      "properties",
      "type",
      "type:object"
    ]
  },
  "schema": {
    "additionalProperties": false,
    "properties": {
      "data": {},
      "error": {},
      "meta": {
        "type": "object"
      },
      "warning": {}
    },
    "title": "API Results",
    "type": "object"
  },
  "tests": [
    {
      "description": "llama 70b generated valid",
      "valid": true,
      "data": {
        "data": {
          "id": 1,
          "name": "John Doe"
        },
        "meta": {
          "pagination": {
            "currentPage": 1,
            "perPage": 10,
            "totalPages": 5,
            "totalItems": 50
          }
        }
      }
    },
    {
      "description": "llama-70b generated negative",
      "valid": false,
      "rust_error": "Additional properties are not allowed ('extra' was unexpected)",
      "python_error": "Additional properties are not allowed ('extra' was unexpected)\n\nFailed validating 'additionalProperties' in schema:\n    {'additionalProperties': False,\n     'properties': {'data': {},\n                    'error': {},\n                    'meta': {'type': 'object'},\n                    'warning': {}},\n     'title': 'API Results',\n     'type': 'object'}\n\nOn instance:\n    {'data': {'id': 1, 'name': 'John Doe'},\n     'meta': {'pagination': {'currentPage': 1,\n                             'perPage': 10,\n                             'totalPages': 5,\n                             'totalItems': 50}},\n     'extra': 'Invalid property'}",
      "data": {
        "data": {
          "id": 1,
          "name": "John Doe"
        },
        "meta": {
          "pagination": {
            "currentPage": 1,
            "perPage": 10,
            "totalPages": 5,
            "totalItems": 50
          }
        },
        "extra": "Invalid property"
      }
    },
    {
      "description": "llama-70b generated negative",
      "valid": false,
      "rust_error": "Additional properties are not allowed ('extraProperty' was unexpected)",
      "python_error": "Additional properties are not allowed ('extraProperty' was unexpected)\n\nFailed validating 'additionalProperties' in schema:\n    {'additionalProperties': False,\n     'properties': {'data': {},\n                    'error': {},\n                    'meta': {'type': 'object'},\n                    'warning': {}},\n     'title': 'API Results',\n     'type': 'object'}\n\nOn instance:\n    {'data': {'id': 1, 'name': 'John Doe'},\n     'meta': {'pagination': {'currentPage': 1,\n                             'perPage': 10,\n                             'totalPages': 5,\n                             'totalItems': 50}},\n     'extraProperty': 'This is an extra property'}",
      "data": {
        "data": {
          "id": 1,
          "name": "John Doe"
        },
        "meta": {
          "pagination": {
            "currentPage": 1,
            "perPage": 10,
            "totalPages": 5,
            "totalItems": 50
          }
        },
        "extraProperty": "This is an extra property"
      }
    },
    {
      "description": "llama 70b generated positive",
      "valid": true,
      "data": {
        "data": {
          "id": 1,
          "name": "John Doe"
        },
        "meta": {
          "currentPage": 1,
          "perPage": 10,
          "totalPages": 1,
          "totalRecords": 1
        }
      }
    },
    {
      "description": "llama-70b generated negative",
      "valid": false,
      "rust_error": "Additional properties are not allowed ('extraProperty' was unexpected)",
      "python_error": "Additional properties are not allowed ('extraProperty' was unexpected)\n\nFailed validating 'additionalProperties' in schema:\n    {'additionalProperties': False,\n     'properties': {'data': {},\n                    'error': {},\n                    'meta': {'type': 'object'},\n                    'warning': {}},\n     'title': 'API Results',\n     'type': 'object'}\n\nOn instance:\n    {'data': {'id': 1, 'name': 'John Doe'},\n     'meta': {'currentPage': 1,\n              'perPage': 10,\n              'totalPages': 1,\n              'totalRecords': 1},\n     'extraProperty': True}",
      "data": {
        "data": {
          "id": 1,
          "name": "John Doe"
        },
        "meta": {
          "currentPage": 1,
          "perPage": 10,
          "totalPages": 1,
          "totalRecords": 1
        },
        "extraProperty": true
      }
    }
  ]
}